# WARNING: Using default tag <latest:2011> for partition DQFLAGS
******* calling  TAlignment
****** setting up Kalman type alignment!
**** setting the main kalman aligment sequence!
================ Configuring XML writer for offline alignment =====================
=================== OnlineMode =  False
ApplicationMgr    SUCCESS
====================================================================================================================================
                                                   Welcome to ApplicationMgr (GaudiCoreSvc v28r1)
                                          running on lbbuild76.cern.ch on Mon Feb 20 04:39:18 2017
====================================================================================================================================
ApplicationMgr       INFO Application Manager Configured successfully

 ****************************** Algorithm Sequence ****************************

[94m GaudiSequencer/EscherSequencer[0m
[94m      ProcessPhase/Init[0m
[94m           InitEscherSeq[0m
[32m                RecInit/EscherInit[0m
[94m      GaudiSequencer/HltFilterSeq[0m
[32m           HltDecReportsDecoder/Hlt1DecReportsDecoder[0m
[32m           HltDecReportsDecoder/Hlt2DecReportsDecoder[0m
[94m      ProcessPhase/Reco[0m
[94m           RecoDecodingSeq[0m
[32m                DecodeVeloRawBuffer/createBothVeloClusters[0m
[32m                RawBankToSTClusterAlg/createTTClusters[0m
[32m                RawBankToSTLiteClusterAlg/createTTLiteClusters[0m
[32m                RawBankToSTLiteClusterAlg/createITLiteClusters[0m
[32m                RawBankToSTClusterAlg/createITClusters[0m
[94m           RecoVELOSeq[0m
[32m                FastVeloTracking/FastVeloTracking[0m
[32m           RecoTTSeq[0m
[32m           RecoITSeq[0m
[32m           RecoOTSeq[0m
[94m           RecoTrSeq[0m
[94m                ProcessPhase/Track[0m
[94m                     TrackForwardPatSeq[0m
[32m                          PatForward/PatForward[0m
[94m                     TrackSeedPatSeq[0m
[32m                          PatSeeding/PatSeeding[0m
[94m                     TrackMatchPatSeq[0m
[32m                          PatMatch/PatMatch[0m
[94m                     TrackDownstreamPatSeq[0m
[32m                          PatDownstream/PatDownstream[0m
[94m                     TrackVeloTTPatSeq[0m
[32m                          PatVeloTT/PatVeloTT[0m
[94m                     TrackFitSeq[0m
[32m                          TrackBestTrackCreator/TrackBestTrackCreator[0m
[94m                     TrackAddExtraInfoSeq[0m
[94m                          GaudiSequencer/TrackClonesSeq[0m
[32m                               TrackBuildCloneTable/FindTrackClones[0m
[32m                               TrackCloneCleaner/FlagTrackClones[0m
[32m                          TrackAddLikelihood/TrackAddLikelihood[0m
[32m                          TrackAddNNGhostId/TrackAddNNGhostId[0m
[94m                     TrackEraseExtraInformationSeq[0m
[32m                          TrackEraseExtraInfo/TrackEraseExtraInfo[0m
[94m           RecoVertexSeq[0m
[32m                PatPVOffline/PatPVOffline[0m
[32m                TrackV0Finder/TrackV0Finder[0m
[94m      ProcessPhase/Moni[0m
[94m           MoniVELOSeq[0m
[32m                Velo::VeloClusterMonitor/VeloClusterMonitor[0m
[32m                Velo::VeloTrackMonitor/VeloTrackMonitor[0m
[32m                Velo::VeloIPResolutionMonitor/VeloIPResolutionMonitor[0m
[94m           MoniTrSeq[0m
[32m                TrackMonitor/TrackMonitor[0m
[32m                TrackDiMuonMonitor/TrackDiMuonMonitor[0m
[32m                TrackVertexMonitor/TrackVertexMonitor[0m
[32m                AlignmentOnlineMonitor/AlignmentOnlineMonitor[0m
[32m                TrackV0Monitor/TrackV0Monitor[0m
[32m                TrackFitMatchMonitor/TrackFitMatchMonitor[0m
[32m                TrackAlignMonitor/TrackAlignMonitor[0m
[32m                TrackITOverlapMonitor/TrackITOverlapMonitor[0m
[32m                TrackVeloOverlapMonitor/TrackVeloOverlapMonitor[0m
[32m                TTTrackMonitor/TTTrackMonitor[0m
[32m                ITTrackMonitor/ITTrackMonitor[0m
[32m                TrackPV2HalfAlignMonitor/TrackPV2HalfAlignMonitor[0m
[94m           MoniOTSeq[0m
[32m                OTTimeMonitor/OTTimeMonitor[0m
[32m                OTTrackMonitor/OTTrackMonitor[0m
[32m                OTHitEfficiencyMonitor/OTHitEfficiencyMonitor[0m
[94m           MoniSTSeq[0m
[32m                ST::STClusterMonitor/TTClusterMonitor[0m
[32m                ST::STClusterMonitor/ITClusterMonitor[0m
[94m      GaudiSequencer/AlignSequence[0m
[94m           GaudiSequencer/AlignInputSeq[0m
[94m                GaudiSequencer/AlignTrackSelSeq[0m
[32m                     TrackListRefiner/GoodLongTracksSelectorAlg[0m
[32m                     TrackListRefiner/VeloOverlapTracksSelectorAlg[0m
[32m                     TrackListRefiner/VeloBackwardTracksSelectorAlg[0m
[32m                     TrackListRefiner/ITBoxOverlapTracksSelectorAlg[0m
[32m                     TrackListMerger/AlignTracks[0m
[94m                GaudiSequencer/AlignPVSelSeq[0m
[32m                     TrackPVRefitter/AlignPVRefitter[0m
[32m                     VertexListRefiner/AlignPVSelector[0m
[94m           GaudiSequencer/AlignmentAlgSeq[0m
[32m                AlignAlgorithm/Alignment[0m
[94m           GaudiSequencer/AlignMonitorSeq[0m
[32m                TrackMonitor/GoodLongTracksTrackMonitor[0m
[32m                TrackVeloOverlapMonitor/GoodLongTracksVeloOverlapMonitor[0m
[32m                TrackITOverlapMonitor/GoodLongTracksITOverlapMonitor[0m
[32m                TTTrackMonitor/GoodLongTracksTTTrackMonitor[0m
[32m                OTTrackMonitor/GoodLongTracksOTTrackMonitor[0m
[32m                TrackFitMatchMonitor/GoodLongTracksFitMatchMonitor[0m
[32m                TrackMonitor/VeloOverlapTracksTrackMonitor[0m
[32m                TrackVeloOverlapMonitor/VeloOverlapTracksVeloOverlapMonitor[0m
[32m                TrackITOverlapMonitor/VeloOverlapTracksITOverlapMonitor[0m
[32m                TTTrackMonitor/VeloOverlapTracksTTTrackMonitor[0m
[32m                OTTrackMonitor/VeloOverlapTracksOTTrackMonitor[0m
[32m                TrackFitMatchMonitor/VeloOverlapTracksFitMatchMonitor[0m
[32m                TrackMonitor/VeloBackwardTracksTrackMonitor[0m
[32m                TrackVeloOverlapMonitor/VeloBackwardTracksVeloOverlapMonitor[0m
[32m                TrackITOverlapMonitor/VeloBackwardTracksITOverlapMonitor[0m
[32m                TTTrackMonitor/VeloBackwardTracksTTTrackMonitor[0m
[32m                OTTrackMonitor/VeloBackwardTracksOTTrackMonitor[0m
[32m                TrackFitMatchMonitor/VeloBackwardTracksFitMatchMonitor[0m
[32m                TrackMonitor/ITBoxOverlapTracksTrackMonitor[0m
[32m                TrackVeloOverlapMonitor/ITBoxOverlapTracksVeloOverlapMonitor[0m
[32m                TrackITOverlapMonitor/ITBoxOverlapTracksITOverlapMonitor[0m
[32m                TTTrackMonitor/ITBoxOverlapTracksTTTrackMonitor[0m
[32m                OTTrackMonitor/ITBoxOverlapTracksOTTrackMonitor[0m
[32m                TrackFitMatchMonitor/ITBoxOverlapTracksFitMatchMonitor[0m
[32m                TrackVertexMonitor/AlignVertexMonitor[0m

 ******************************************************************************

DetectorPersist...   INFO Added successfully Conversion service:XmlCnvSvc
DetectorDataSvc   SUCCESS Detector description database: conddb:/lhcb.xml
RndmGenSvc.Engine    INFO Generator engine type:CLHEP::RanluxEngine
RndmGenSvc.Engine    INFO Current Seed:1234567 Luxury:3
RndmGenSvc           INFO Using Random engine:HepRndm::Engine<CLHEP::RanluxEngine>
TimingAuditor.T...   INFO This machine has a speed about   2.44 times the speed of a 2.8 GHz Xeon.
TransportSvc         INFO Initialize the static pointer to DetDesc::IGeometryErrorSvc
TransportSvc         INFO Recovery of geometry errors is  ENABLED
COOLConfSvc          INFO CORAL Connection Retrial Period set to 60s
COOLConfSvc          INFO CORAL Connection Retrial Time-Out set to 900s
DDDB                 INFO Connected to database "sqlite_file:/afs/cern.ch/lhcb/software/DEV/nightlies/DBASE/Det/SQLDDDB/v7r999/db/DDDB.db/DDDB"
DDDB                 INFO Using TAG "dddb-20130503"
EscherSequencer      INFO Member list: ProcessPhase/Init, GaudiSequencer/HltFilterSeq, ProcessPhase/Reco, ProcessPhase/Moni, GaudiSequencer/AlignSequence
Init                 INFO Member list: GaudiSequencer/InitEscherSeq, with context 'Offline'
InitEscherSeq        INFO Member list: RecInit/EscherInit, with context 'Offline'
EscherInit        SUCCESS ==================================================================
EscherInit        SUCCESS Requested to process 100 events
EscherInit        SUCCESS ==================================================================
RootHistSvc          INFO Writing ROOT histograms to: AlignCollisions-100ev-histos.root
HistogramPersis...   INFO Added successfully Conversion service:RootHistSvc
HltFilterSeq         INFO Member list: HltDecReportsDecoder/Hlt1DecReportsDecoder, HltDecReportsDecoder/Hlt2DecReportsDecoder
Reco                 INFO Member list: GaudiSequencer/RecoDecodingSeq, GaudiSequencer/RecoVELOSeq, GaudiSequencer/RecoTTSeq, GaudiSequencer/RecoITSeq, GaudiSequencer/RecoOTSeq, GaudiSequencer/RecoTrSeq, GaudiSequencer/RecoVertexSeq
RecoDecodingSeq      INFO Member list: DecodeVeloRawBuffer/createBothVeloClusters, RawBankToSTClusterAlg/createTTClusters, RawBankToSTLiteClusterAlg/createTTLiteClusters, RawBankToSTLiteClusterAlg/createITLiteClusters, RawBankToSTClusterAlg/createITClusters
createBothVeloC...   INFO Cancel processing of events with more than 6000 Velo clusters
LHCBCOND             INFO Connected to database "sqlite_file:/afs/cern.ch/lhcb/software/DEV/nightlies/DBASE/Det/SQLDDDB/v7r999/db/LHCBCOND.db/LHCBCOND"
LHCBCOND             INFO Using TAG "cond-20130522"
ONLINE_2011          INFO Connected to database "sqlite_file:/afs/cern.ch/lhcb/software/DEV/nightlies/DBASE/Det/SQLDDDB/v7r999/db/ONLINE-2011.db/ONLINE"
ONLINE_2011          INFO Using TAG ""
RecoVELOSeq          INFO Member list: FastVeloTracking
RecoTTSeq            INFO Member list:
RecoITSeq            INFO Member list:
RecoOTSeq            INFO Member list:
RecoTrSeq            INFO Member list: ProcessPhase/Track
Track                INFO Member list: GaudiSequencer/TrackForwardPatSeq, GaudiSequencer/TrackSeedPatSeq, GaudiSequencer/TrackMatchPatSeq, GaudiSequencer/TrackDownstreamPatSeq, GaudiSequencer/TrackVeloTTPatSeq, GaudiSequencer/TrackFitSeq, GaudiSequencer/TrackAddExtraInfoSeq, GaudiSequencer/TrackEraseExtraInformationSeq
TrackForwardPatSeq   INFO Member list: PatForward
ToolSvc.OTRawBa...   INFO  countsPerBX = 64 numberOfBX  = 3 timePerBX = 25 ForceBankVersion = 255 require window [-8,56], vetoing out of time hit pairs
MagneticFieldSvc     INFO Opened magnetic field file : /afs/cern.ch/lhcb/software/DEV/nightlies/DBASE/FieldMap/v5r7/cdf/field101.c1.up.cdf
MagneticFieldSvc     INFO Opened magnetic field file : /afs/cern.ch/lhcb/software/DEV/nightlies/DBASE/FieldMap/v5r7/cdf/field101.c2.up.cdf
MagneticFieldSvc     INFO Opened magnetic field file : /afs/cern.ch/lhcb/software/DEV/nightlies/DBASE/FieldMap/v5r7/cdf/field101.c3.up.cdf
MagneticFieldSvc     INFO Opened magnetic field file : /afs/cern.ch/lhcb/software/DEV/nightlies/DBASE/FieldMap/v5r7/cdf/field101.c4.up.cdf
MagneticFieldSvc     INFO Map scaled by factor 1 with polarity internally used: 1 signed relative current: 1
TrackSeedPatSeq      INFO Member list: PatSeeding
TrackMatchPatSeq     INFO Member list: PatMatch
TrackDownstream...   INFO Member list: PatDownstream
PatDownstream        INFO ========================================
PatDownstream        INFO  deltaP             = 2
PatDownstream        INFO  xPredTol           = 150000
PatDownstream        INFO  TolMomentum        = 20000
PatDownstream        INFO  TolMatch           = 1.5
PatDownstream        INFO  TolUV              = 2
PatDownstream        INFO  MaxDistance        = 0.3
PatDownstream        INFO  MaxChi2            = 20
PatDownstream        INFO  MaxWindowSize      = 10
PatDownstream        INFO  RemoveUsed         = 0
PatDownstream        INFO  RemoveAll          = 0
PatDownstream        INFO  LongChi2           = 1.5
PatDownstream        INFO ========================================
PatDownstream        INFO zMagnetParams 5372.13 -3702.66 401.378 109033 -0.0119398 -0.158909 1668.42
PatDownstream        INFO momentumParams 1148.65 961.786 5326.81
TrackVeloTTPatSeq    INFO Member list: PatVeloTT
ToolSvc.PatTTMa...   INFO Start generation of VeloTT Bdl LUTs
ToolSvc.PatTTMa...   INFO Generation of VeloTT Bdl LUTs finished
ToolSvc.PatTTMa...   INFO Start generation of VeloTT deflection LUTs
ToolSvc.PatTTMa...   INFO Generation of VeloTT deflection LUTs finished
ToolSvc.VeloClu...   INFO  --> Tool configured using the Cond DB
ToolSvc.TTClust...   INFO APE set to 0.197
ToolSvc.TTClust...   INFO Error Vec 0.257 0.245 0.277 0.208
ToolSvc.ITClust...   INFO APE set to 0.0758
ToolSvc.ITClust...   INFO Error Vec 0.253 0.236 0.273 0.185
PatVeloTT            INFO  InputTracksName    = Rec/Track/Velo
PatVeloTT            INFO  OutputTracksName   = Rec/Track/VeloTT
TrackFitSeq          INFO Member list: TrackBestTrackCreator
TrackAddExtraIn...   INFO Member list: GaudiSequencer/TrackClonesSeq, TrackAddLikelihood, TrackAddNNGhostId
TrackClonesSeq       INFO Member list: TrackBuildCloneTable/FindTrackClones, TrackCloneCleaner/FlagTrackClones
ToolSvc.TrackHe...   INFO ExtrapolatorID=5
FindTrackClones      INFO Will build clone table for z=[0, 990, 9450]mm at 'Rec/Track/BestClones'
FindTrackClones      INFO Max Kullbeck Liebler Distance = 5000
TrackEraseExtra...   INFO Member list: TrackEraseExtraInfo
RecoVertexSeq        INFO Member list: PatPVOffline, TrackV0Finder
Moni                 INFO Member list: GaudiSequencer/MoniVELOSeq, GaudiSequencer/MoniTrSeq, GaudiSequencer/MoniOTSeq, GaudiSequencer/MoniSTSeq
MoniVELOSeq          INFO Member list: Velo::VeloClusterMonitor/VeloClusterMonitor, Velo::VeloTrackMonitor/VeloTrackMonitor, Velo::VeloIPResolutionMonitor/VeloIPResolutionMonitor
MoniTrSeq            INFO Member list: TrackMonitor, TrackDiMuonMonitor, TrackVertexMonitor, AlignmentOnlineMonitor, TrackV0Monitor, TrackFitMatchMonitor, TrackAlignMonitor, TrackITOverlapMonitor, TrackVeloOverlapMonitor, TTTrackMonitor, ITTrackMonitor, TrackPV2HalfAlignMonitor
MoniOTSeq            INFO Member list: OTTimeMonitor, OTTrackMonitor, OTHitEfficiencyMonitor
MoniSTSeq            INFO Member list: ST::STClusterMonitor/TTClusterMonitor, ST::STClusterMonitor/ITClusterMonitor
AlignSequence        INFO Member list: GaudiSequencer/AlignInputSeq, GaudiSequencer/AlignmentAlgSeq, GaudiSequencer/AlignMonitorSeq
AlignInputSeq        INFO Member list: GaudiSequencer/AlignTrackSelSeq, GaudiSequencer/AlignPVSelSeq
AlignTrackSelSeq     INFO Member list: TrackListRefiner/GoodLongTracksSelectorAlg, TrackListRefiner/VeloOverlapTracksSelectorAlg, TrackListRefiner/VeloBackwardTracksSelectorAlg, TrackListRefiner/ITBoxOverlapTracksSelectorAlg, TrackListMerger/AlignTracks
AlignPVSelSeq        INFO Member list: TrackPVRefitter/AlignPVRefitter, VertexListRefiner/AlignPVSelector
AlignmentAlgSeq      INFO Member list: AlignAlgorithm/Alignment
ToolSvc.GetElem...   INFO Use local frame = 1
ToolSvc.GetElem...   INFO ===================== GetElementsToAlign =====================
ToolSvc.GetElem...   INFO    Going to align 157 detector elements:
ToolSvc.GetElem...   INFO    Number of elements in map: 3303
ToolSvc.GetElem...   INFO ==============================================================
ToolSvc.Al::Ali...   INFO Constraint definition:  dofs = num elements = 157
ToolSvc.Al::Ali...   INFO Constraint definition: VeloHalfAverage  dofs = Tx , num elements = 2
ToolSvc.Al::Ali...   INFO Constraint definition: OT3X  dofs = Tx , num elements = 2
ToolSvc.Al::Ali...   INFO Number of constraint definitions= 3,  number of active constraints = 2
ToolSvc.Al::Ali...   INFO Number of entries in xml data: 3065
ToolSvc.Al::Ali...   INFO Number of entries specified by job-option: 19
ToolSvc.DiagSol...   INFO EigenValueThreshold = -1
ToolSvc.DiagSol...   INFO MinEigenModeChisquare = -1
Alignment            INFO Use correlations = 1
AlignMonitorSeq      INFO Member list: TrackMonitor/GoodLongTracksTrackMonitor, TrackVeloOverlapMonitor/GoodLongTracksVeloOverlapMonitor, TrackITOverlapMonitor/GoodLongTracksITOverlapMonitor, TTTrackMonitor/GoodLongTracksTTTrackMonitor, OTTrackMonitor/GoodLongTracksOTTrackMonitor, TrackFitMatchMonitor/GoodLongTracksFitMatchMonitor, TrackMonitor/VeloOverlapTracksTrackMonitor, TrackVeloOverlapMonitor/VeloOverlapTracksVeloOverlapMonitor, TrackITOverlapMonitor/VeloOverlapTracksITOverlapMonitor, TTTrackMonitor/VeloOverlapTracksTTTrackMonitor, OTTrackMonitor/VeloOverlapTracksOTTrackMonitor, TrackFitMatchMonitor/VeloOverlapTracksFitMatchMonitor, TrackMonitor/VeloBackwardTracksTrackMonitor, TrackVeloOverlapMonitor/VeloBackwardTracksVeloOverlapMonitor, TrackITOverlapMonitor/VeloBackwardTracksITOverlapMonitor, TTTrackMonitor/VeloBackwardTracksTTTrackMonitor, OTTrackMonitor/VeloBackwardTracksOTTrackMonitor, TrackFitMatchMonitor/VeloBackwardTracksFitMatchMonitor, TrackMonitor/ITBoxOverlapTracksTrackMonitor, TrackVeloOverlapMonitor/ITBoxOverlapTracksVeloOverlapMonitor, TrackITOverlapMonitor/ITBoxOverlapTracksITOverlapMonitor, TTTrackMonitor/ITBoxOverlapTracksTTTrackMonitor, OTTrackMonitor/ITBoxOverlapTracksOTTrackMonitor, TrackFitMatchMonitor/ITBoxOverlapTracksFitMatchMonitor, TrackVertexMonitor/AlignVertexMonitor
IODataManager       ERROR Referring to existing dataset mdf:root://eoslhcb.cern.ch//eos/lhcb/grid/prod/lhcb/swtest/lhcb/LHCb/Collision11/RAW/00020657/0000/00020657_00000391_1.raw by its physical name.
IODataManager       ERROR You may not be able to navigate back to the input file -- processing continues
EventSelector        INFO Stream:EventSelector.DataStreamTool_1 Def:DATAFILE='mdf:root://eoslhcb.cern.ch//eos/lhcb/grid/prod/lhcb/swtest/lhcb/LHCb/Collision11/RAW/00020657/0000/00020657_00000391_1.raw' SVC='LHCb::MDFSelector' OPT='READ'
ApplicationMgr       INFO Application Manager Initialized successfully
EventSelector       DEBUG Property update for OutputLevel : new value = 1
["DATAFILE='mdf:root://eoslhcb.cern.ch//eos/lhcb/grid/prod/lhcb/swtest/lhcb/LHCb/Collision11/RAW/00020657/0000/00020657_00000391_1.raw' SVC='LHCb::MDFSelector' OPT='READ'"]
Iteration nr:  0
IODataManager       ERROR Referring to existing dataset mdf:root://eoslhcb.cern.ch//eos/lhcb/grid/prod/lhcb/swtest/lhcb/LHCb/Collision11/RAW/00020657/0000/00020657_00000391_1.raw by its physical name.
IODataManager       ERROR You may not be able to navigate back to the input file -- processing continues
EventSelector        INFO Stream:EventSelector.DataStreamTool_1 Def:DATAFILE='mdf:root://eoslhcb.cern.ch//eos/lhcb/grid/prod/lhcb/swtest/lhcb/LHCb/Collision11/RAW/00020657/0000/00020657_00000391_1.raw' SVC='LHCb::MDFSelector' OPT='READ'
ApplicationMgr       INFO Application Manager Started successfully
EventSelector.D...   INFO Compression:0 Checksum:1
EventPersistenc...   INFO Added successfully Conversion service:RootCnvSvc
EventPersistenc...   INFO Added successfully Conversion service:LHCb::RawDataCnvSvc
MagneticFieldSvc     INFO Map scaled by factor 1 with polarity internally used: 1 signed relative current: 1
EscherInit           INFO Evt 954303,  Run 89415,  Nr. in job = 1
PropertyConfigSvc    INFO  resolving alias TCK/0x005b0032
ConfigCDBAccessSvc   INFO  opening /afs/cern.ch/lhcb/software/DEV/nightlies/DBASE/TCK/HltTCK/v3r16p42/config.cdb in mode ReadOnly
PropertyConfigSvc    INFO  resolved TCK/0x005b0032 to dbe6c7e854b29c2e54c470375f37819a
ToolSvc.GetElem...   INFO
Updating detector data svc and update manager svc with time: *******************0
Initializing alignment frames with time: 1302913125670848000 --> 2011-04-16 02:18:45 AM

EscherInit           INFO Evt 829849,  Run 89415,  Nr. in job = 2
ChronoStatSvc        INFO  Number of skipped events for MemStat-1
EscherInit           INFO Evt 441099,  Run 89415,  Nr. in job = 3
EscherInit           INFO Evt 762104,  Run 89415,  Nr. in job = 4
EscherInit           INFO Evt 930928,  Run 89415,  Nr. in job = 5
EscherInit           INFO Evt 656830,  Run 89415,  Nr. in job = 6
EscherInit           INFO Evt 528277,  Run 89415,  Nr. in job = 7
EscherInit           INFO Evt 811889,  Run 89415,  Nr. in job = 8
Alignment            INFO Rejected 2 out of 14 tracks because of overlaps.
EscherInit           INFO Evt 536855,  Run 89415,  Nr. in job = 9
Alignment            INFO Rejected 4 out of 13 tracks because of overlaps.
EscherInit           INFO Evt 1048227,  Run 89415,  Nr. in job = 10
EscherInit           INFO Evt 731765,  Run 89415,  Nr. in job = 11
Alignment            INFO Rejected 9 out of 40 tracks because of overlaps.
EscherInit           INFO Evt 893047,  Run 89415,  Nr. in job = 12
Alignment            INFO Rejected 2 out of 16 tracks because of overlaps.
EscherInit           INFO Evt 775209,  Run 89415,  Nr. in job = 13
Alignment            INFO Rejected 4 out of 22 tracks because of overlaps.
EscherInit           INFO Evt 908244,  Run 89415,  Nr. in job = 14
Alignment            INFO Rejected 3 out of 23 tracks because of overlaps.
EscherInit           INFO Evt 406841,  Run 89415,  Nr. in job = 15
EscherInit           INFO Evt 375937,  Run 89415,  Nr. in job = 16
Alignment            INFO Rejected 1 out of 11 tracks because of overlaps.
EscherInit           INFO Evt 723513,  Run 89415,  Nr. in job = 17
Alignment            INFO Rejected 12 out of 56 tracks because of overlaps.
EscherInit           INFO Evt 1045798,  Run 89415,  Nr. in job = 18
Alignment            INFO Rejected 5 out of 32 tracks because of overlaps.
EscherInit           INFO Evt 845904,  Run 89415,  Nr. in job = 19
Alignment            INFO Rejected 7 out of 35 tracks because of overlaps.
EscherInit           INFO Evt 552754,  Run 89415,  Nr. in job = 20
EscherInit           INFO Evt 768213,  Run 89415,  Nr. in job = 21
EscherInit           INFO Evt 892165,  Run 89415,  Nr. in job = 22
EscherInit           INFO Evt 687409,  Run 89415,  Nr. in job = 23
EscherInit           INFO Evt 526378,  Run 89415,  Nr. in job = 24
Alignment            INFO Rejected 4 out of 23 tracks because of overlaps.
EscherInit           INFO Evt 827057,  Run 89415,  Nr. in job = 25
Alignment            INFO Rejected 1 out of 23 tracks because of overlaps.
EscherInit           INFO Evt 960138,  Run 89415,  Nr. in job = 26
EscherInit           INFO Evt 543110,  Run 89415,  Nr. in job = 27
Alignment            INFO Rejected 3 out of 21 tracks because of overlaps.
EscherInit           INFO Evt 639469,  Run 89415,  Nr. in job = 28
Alignment            INFO Rejected 25 out of 76 tracks because of overlaps.
EscherInit           INFO Evt 991059,  Run 89415,  Nr. in job = 29
Alignment            INFO Rejected 3 out of 30 tracks because of overlaps.
EscherInit           INFO Evt 604757,  Run 89415,  Nr. in job = 30
EscherInit           INFO Evt 644532,  Run 89415,  Nr. in job = 31
Alignment            INFO Rejected 1 out of 8 tracks because of overlaps.
EscherInit           INFO Evt 828869,  Run 89415,  Nr. in job = 32
Alignment            INFO Rejected 5 out of 24 tracks because of overlaps.
EscherInit           INFO Evt 636319,  Run 89415,  Nr. in job = 33
Alignment            INFO Rejected 1 out of 17 tracks because of overlaps.
EscherInit           INFO Evt 646389,  Run 89415,  Nr. in job = 34
Alignment            INFO Rejected 3 out of 26 tracks because of overlaps.
EscherInit           INFO Evt 154174,  Run 89415,  Nr. in job = 35
EscherInit           INFO Evt 680567,  Run 89415,  Nr. in job = 36
EscherInit           INFO Evt 580607,  Run 89415,  Nr. in job = 37
EscherInit           INFO Evt 497648,  Run 89415,  Nr. in job = 38
EscherInit           INFO Evt 448605,  Run 89415,  Nr. in job = 39
EscherInit           INFO Evt 522313,  Run 89415,  Nr. in job = 40
EscherInit           INFO Evt 705582,  Run 89415,  Nr. in job = 41
EscherInit           INFO Evt 731554,  Run 89415,  Nr. in job = 42
EscherInit           INFO Evt 1039427,  Run 89415,  Nr. in job = 43
EscherInit           INFO Evt 254125,  Run 89415,  Nr. in job = 44
EscherInit           INFO Evt 823740,  Run 89415,  Nr. in job = 45
EscherInit           INFO Evt 506765,  Run 89415,  Nr. in job = 46
EscherInit           INFO Evt 577961,  Run 89415,  Nr. in job = 47
EscherInit           INFO Evt 1013511,  Run 89415,  Nr. in job = 48
EscherInit           INFO Evt 668683,  Run 89415,  Nr. in job = 49
EscherInit           INFO Evt 559830,  Run 89415,  Nr. in job = 50
EscherInit           INFO Evt 798145,  Run 89415,  Nr. in job = 51
EscherInit           INFO Evt 920878,  Run 89415,  Nr. in job = 52
EscherInit           INFO Evt 538186,  Run 89415,  Nr. in job = 53
EscherInit           INFO Evt 574730,  Run 89415,  Nr. in job = 54
EscherInit           INFO Evt 662298,  Run 89415,  Nr. in job = 55
EscherInit           INFO Evt 795551,  Run 89415,  Nr. in job = 56
EscherInit           INFO Evt 596213,  Run 89415,  Nr. in job = 57
EscherInit           INFO Evt 1171996,  Run 89415,  Nr. in job = 58
EscherInit           INFO Evt 893141,  Run 89415,  Nr. in job = 59
EscherInit           INFO Evt 483977,  Run 89415,  Nr. in job = 60
EscherInit           INFO Evt 439269,  Run 89415,  Nr. in job = 61
EscherInit           INFO Evt 517582,  Run 89415,  Nr. in job = 62
EscherInit           INFO Evt 828903,  Run 89415,  Nr. in job = 63
EscherInit           INFO Evt 1044982,  Run 89415,  Nr. in job = 64
EscherInit           INFO Evt 5954,  Run 89415,  Nr. in job = 65
EscherInit           INFO Evt 231426,  Run 89415,  Nr. in job = 66
EscherInit           INFO Evt 648185,  Run 89415,  Nr. in job = 67
EscherInit           INFO Evt 536857,  Run 89415,  Nr. in job = 68
EscherInit           INFO Evt 679953,  Run 89415,  Nr. in job = 69
EscherInit           INFO Evt 877159,  Run 89415,  Nr. in job = 70
EscherInit           INFO Evt 1005253,  Run 89415,  Nr. in job = 71
EscherInit           INFO Evt 473098,  Run 89415,  Nr. in job = 72
EscherInit           INFO Evt 766236,  Run 89415,  Nr. in job = 73
EscherInit           INFO Evt 810058,  Run 89415,  Nr. in job = 74
EscherInit           INFO Evt 442016,  Run 89415,  Nr. in job = 75
EscherInit           INFO Evt 503852,  Run 89415,  Nr. in job = 76
EscherInit           INFO Evt 666302,  Run 89415,  Nr. in job = 77
EscherInit           INFO Evt 589874,  Run 89415,  Nr. in job = 78
EscherInit           INFO Evt 571053,  Run 89415,  Nr. in job = 79
EscherInit           INFO Evt 287253,  Run 89415,  Nr. in job = 80
EscherInit           INFO Evt 642502,  Run 89415,  Nr. in job = 81
EscherInit           INFO Evt 653171,  Run 89415,  Nr. in job = 82
EscherInit           INFO Evt 62563,  Run 89415,  Nr. in job = 83
EscherInit           INFO Evt 953590,  Run 89415,  Nr. in job = 84
EscherInit           INFO Evt 690543,  Run 89415,  Nr. in job = 85
EscherInit           INFO Evt 834075,  Run 89415,  Nr. in job = 86
EscherInit           INFO Evt 566923,  Run 89415,  Nr. in job = 87
EscherInit           INFO Evt 502701,  Run 89415,  Nr. in job = 88
EscherInit           INFO Evt 755768,  Run 89415,  Nr. in job = 89
EscherInit           INFO Evt 864015,  Run 89415,  Nr. in job = 90
EscherInit           INFO Evt 588860,  Run 89415,  Nr. in job = 91
EscherInit           INFO Evt 505081,  Run 89415,  Nr. in job = 92
EscherInit           INFO Evt 727480,  Run 89415,  Nr. in job = 93
EscherInit           INFO Evt 877101,  Run 89415,  Nr. in job = 94
EscherInit           INFO Evt 265015,  Run 89415,  Nr. in job = 95
EscherInit           INFO Evt 537787,  Run 89415,  Nr. in job = 96
EscherInit           INFO Evt 777564,  Run 89415,  Nr. in job = 97
EscherInit           INFO Evt 327857,  Run 89415,  Nr. in job = 98
EscherInit           INFO Evt 658309,  Run 89415,  Nr. in job = 99
EscherInit           INFO Memory has changed from 1762288 to 2027076 KB (264788KB, 15.0252%) in last 100 events
EscherInit           INFO Evt 746232,  Run 89415,  Nr. in job = 100
Alignment            INFO Total number of tracks: 2293
Alignment            INFO Number of covariance calculation failures: 0
ToolSvc.Al::Ali...   INFO
==> Updating constants
ToolSvc.Al::Ali...   INFO Adding daughter derivatives
ToolSvc.Al::Ali...   INFO Adding survey constraints.
ToolSvc.Al::Ali...   INFO End of adding survey constraints.
ToolSvc.Al::Ali...   INFO Pivot, z/x-range for canonical constraints: (-12.1078,-9.42492,6330.39), [-4.80288e-06,9375.06], [-412.5,412.5]
ToolSvc.Al::Ali...   INFO Pivot, z/x-range for canonical constraints: (0.467805,0.0465784,-4.80286e-06), [-4.80288e-06,-4.80284e-06], [0.467503,0.468106]
ToolSvc.Al::Ali...   INFO Pivot, z/x-range for canonical constraints: (-84,0.4336,9255.06), [9255.06,9255.06], [-84.625,-83.375]
ToolSvc.Al::Ali...   INFO Total number of active constraints: 2
ToolSvc.Al::Ali...   INFO Matrices too big to dump to std
ToolSvc.Al::Ali...   INFO Applying pre-conditioning
ToolSvc.Al::Ali...   INFO Calling solver tool
ToolSvc.DiagSol...   INFO Solving with diagonalization method
ToolSvc.DiagSol...   INFO After z/w allocation
ToolSvc.DiagSol...   INFO After diagonalization
ToolSvc.DiagSol...   INFO Smallest eigen values: [ 0.07987, 0.08128, 0.08304, 0.08476, 0.09064, 0.09192, 0.09289, 0.0955, 0.09577, 0.09697, 0.09936, 0.1018, 0.1606, 0.1629, 0.1692, 0.1732, 0.1866, 0.1988, 0.225, 0.2324 ]
ToolSvc.DiagSol...WARNING Negative eigenvalue (i,val,chi2)= 0 -19070.6 -1.10085
ToolSvc.DiagSol...WARNING Negative eigenvalue (i,val,chi2)= 1 -9826.42 -0.00146241
ToolSvc.DiagSol...   INFO Number / total chi2 of rejected eigenvalues: 0 0
ToolSvc.DiagSol...   INFO Total chi2 of accepted eigenvalues: 1115
ToolSvc.DiagSol...   INFO Maximum chi2 of individual mode: 65.2748
ToolSvc.DiagSol...   INFO Maximum chi2 of individual mode after correcting for lagrange constraints: 64.2298
ToolSvc.Al::Ali...   INFO Applying post-conditioning
ToolSvc.Al::Ali...   INFO computing delta-chi2
ToolSvc.WriteMu...   INFO 	WriteAlignmentConditionsTool/WriteVeloGlobalToXML	WriteAlignmentConditionsTool/WriteVeloModulesToXML	WriteAlignmentConditionsTool/WriteTTGlobalToXML	WriteAlignmentConditionsTool/WriteTTModulesToXML	WriteAlignmentConditionsTool/WriteITGlobalToXML	WriteAlignmentConditionsTool/WriteITModulesToXML	WriteAlignmentConditionsTool/WriteOTGlobalToXML	WriteAlignmentConditionsTool/WriteOTModulesToXML	WriteAlignmentConditionsTool/WriteMuonGlobalToXML
ToolSvc.WriteMu...   INFO topElement = /dd/Structure/LHCb/BeforeMagnetRegion/Velo
footer     = </DDDB>
startTag   = <condition
outputFile = xml/Conditions/Online/Velo/Alignment/Global.xml
precision  = 10
ToolSvc.WriteMu...   INFO topElement = /dd/Structure/LHCb/BeforeMagnetRegion/Velo
footer     = </DDDB>
startTag   = <condition
outputFile = xml/Conditions/Online/Velo/Alignment/Modules.xml
precision  = 10
ToolSvc.WriteMu...   INFO topElement = /dd/Structure/LHCb/BeforeMagnetRegion/TT
footer     = </DDDB>
startTag   = <condition
outputFile = xml/Conditions/Online/TT/Alignment/Global.xml
precision  = 10
ToolSvc.WriteMu...   INFO topElement = /dd/Structure/LHCb/BeforeMagnetRegion/TT
footer     = </DDDB>
startTag   = <condition
outputFile = xml/Conditions/Online/TT/Alignment/Modules.xml
precision  = 10
ToolSvc.WriteMu...   INFO topElement = /dd/Structure/LHCb/AfterMagnetRegion/T/IT
footer     = </DDDB>
startTag   = <condition
outputFile = xml/Conditions/Online/IT/Alignment/Global.xml
precision  = 10
ToolSvc.WriteMu...   INFO topElement = /dd/Structure/LHCb/AfterMagnetRegion/T/IT
footer     = </DDDB>
startTag   = <condition
outputFile = xml/Conditions/Online/IT/Alignment/Modules.xml
precision  = 10
ToolSvc.WriteMu...   INFO topElement = /dd/Structure/LHCb/AfterMagnetRegion/T/OT
footer     = </DDDB>
startTag   = <condition
outputFile = xml/Conditions/Online/OT/Alignment/Global.xml
precision  = 10
ToolSvc.WriteMu...   INFO topElement = /dd/Structure/LHCb/AfterMagnetRegion/T/OT
footer     = </DDDB>
startTag   = <condition
outputFile = xml/Conditions/Online/OT/Alignment/Modules.xml
precision  = 10
ToolSvc.WriteMu...   INFO topElement = /dd/Structure/LHCb/DownstreamRegion/Muon
footer     = </DDDB>
startTag   = <condition
outputFile = xml/Conditions/Muon/Alignment/Global.xml
precision  = 10
ToolSvc.WriteMu...   INFO Writing alignment conditions to file: xml/Conditions/Online/Velo/Alignment/Global.xml
ToolSvc.WriteMu...   INFO Writing alignment conditions to file: xml/Conditions/Online/Velo/Alignment/Modules.xml
ToolSvc.WriteMu...   INFO Writing alignment conditions to file: xml/Conditions/Online/TT/Alignment/Global.xml
ToolSvc.WriteMu...   INFO Writing alignment conditions to file: xml/Conditions/Online/TT/Alignment/Modules.xml
ToolSvc.WriteMu...   INFO Writing alignment conditions to file: xml/Conditions/Online/IT/Alignment/Global.xml
ToolSvc.WriteMu...   INFO Writing alignment conditions to file: xml/Conditions/Online/IT/Alignment/Modules.xml
ToolSvc.WriteMu...   INFO Writing alignment conditions to file: xml/Conditions/Online/OT/Alignment/Global.xml
ToolSvc.WriteMu...   INFO Writing alignment conditions to file: xml/Conditions/Online/OT/Alignment/Modules.xml
ToolSvc.WriteMu...   INFO Writing alignment conditions to file: xml/Conditions/Muon/Alignment/Global.xml
ApplicationMgr       INFO Application Manager Stopped successfully
EscherInit        SUCCESS ==================================================================
EscherInit        SUCCESS 100 events processed
EscherInit        SUCCESS ==================================================================
createTTClusters     INFO Successfully processed 100 %
createTTClusters  SUCCESS Number of counters : 3
 |    Counter                                      |     #     |    sum     | mean/eff^* | rms/err^*  |     min     |     max     |
 | "# banks found"                                 |      4800 |       4800 |     1.0000 |     0.0000 |      1.0000 |      1.0000 |
 | "# valid banks"                                 |      4800 |       4800 |     1.0000 |     0.0000 |      1.0000 |      1.0000 |
 | "skipped Banks"                                 |         0 |          0 |     0.0000 |     0.0000 | 1.7977e+308 |-1.7977e+308 |
createTTLiteClu...   INFO Successfully processed 100 %
createTTLiteClu...SUCCESS Number of counters : 3
 |    Counter                                      |     #     |    sum     | mean/eff^* | rms/err^*  |     min     |     max     |
 | "# valid banks"                                 |      4800 |       4800 |     1.0000 |     0.0000 |      1.0000 |      1.0000 |
 | "# valid source ID"                             |      4800 |       4800 |     1.0000 |     0.0000 |      1.0000 |      1.0000 |
 | "skipped Banks"                                 |         0 |          0 |     0.0000 |     0.0000 | 1.7977e+308 |-1.7977e+308 |
createITLiteClu...   INFO Successfully processed 100 %
createITLiteClu...SUCCESS Number of counters : 7
 |    Counter                                      |     #     |    sum     | mean/eff^* | rms/err^*  |     min     |     max     |
 | "# valid banks"                                 |      4200 |       4200 |     1.0000 |     0.0000 |      1.0000 |      1.0000 |
 | "# valid source ID"                             |      4200 |       4200 |     1.0000 |     0.0000 |      1.0000 |      1.0000 |
 | "events with error banks"                       |         1 |          1 |     1.0000 |     0.0000 |      1.0000 |      1.0000 |
 | "recovered banks64"                             |         1 |          1 |     1.0000 |     0.0000 |      1.0000 |      1.0000 |
 | "skipped Banks"                                 |         0 |          0 |     0.0000 |     0.0000 | 1.7977e+308 |-1.7977e+308 |
 | "sourceID 64"                                   |         1 |          1 |     1.0000 |     0.0000 |      1.0000 |      1.0000 |
 | "total # error banks"                           |         1 |          1 |     1.0000 |     0.0000 |      1.0000 |      1.0000 |
createITClusters     INFO Successfully processed 100 %
createITClusters  SUCCESS Number of counters : 4
 |    Counter                                      |     #     |    sum     | mean/eff^* | rms/err^*  |     min     |     max     |
 | "# banks found"                                 |      4200 |       4200 |     1.0000 |     0.0000 |      1.0000 |      1.0000 |
 | "# valid banks"                                 |      4200 |       4200 |     1.0000 |     0.0000 |      1.0000 |      1.0000 |
 | "recovered banks64"                             |         1 |          1 |     1.0000 |     0.0000 |      1.0000 |      1.0000 |
 | "skipped Banks"                                 |         0 |          0 |     0.0000 |     0.0000 | 1.7977e+308 |-1.7977e+308 |
PatForward        SUCCESS Number of counters : 2
 |    Counter                                      |     #     |    sum     | mean/eff^* | rms/err^*  |     min     |     max     |
 | "#Seeds"                                        |       100 |      10137 |     101.37 |     77.165 |      0.0000 |      426.00 |
 | "#Tracks"                                       |       100 |       4398 |     43.980 |     50.383 |      0.0000 |      367.00 |
TrackBestTrackC...   INFO   Fitting performance   :   100.00 %
TrackBestTrackC...SUCCESS Number of counters : 26
 |    Counter                                      |     #     |    sum     | mean/eff^* | rms/err^*  |     min     |     max     |
 | "BadInput"                                      |     19599 |          0 |     0.0000 |     0.0000 |      0.0000 |      0.0000 |
 | "Downstream.badChisq"                           |      3862 |       2657 |    0.68799 |    0.46332 |      0.0000 |      1.0000 |
 | "Downstream.chisqprobSum"                       |      3862 |   291.6299 |   0.075513 |    0.17984 |      0.0000 |     0.99814 |
 | "Downstream.flipCharge"                         |      3862 |          9 |  0.0023304 |   0.048218 |      0.0000 |      1.0000 |
 | "Downstream.numOutliers"                        |      3862 |       4512 |     1.1683 |    0.86664 |      0.0000 |      2.0000 |
 | "FitFailed"                                     |     19599 |          0 |     0.0000 |     0.0000 |      0.0000 |      0.0000 |
 | "Long.badChisq"                                 |      5107 |       2387 |    0.46740 |    0.49894 |      0.0000 |      1.0000 |
 | "Long.chisqprobSum"                             |      5107 |    776.594 |    0.15206 |    0.24192 |      0.0000 |     0.99962 |
 | "Long.flipCharge"                               |      5107 |          2 | 0.00039162 |   0.019785 |      0.0000 |      1.0000 |
 | "Long.numOutliers"                              |      5107 |       5177 |     1.0137 |    0.85175 |      0.0000 |      2.0000 |
 | "Ttrack.badChisq"                               |      4607 |        368 |   0.079878 |    0.27110 |      0.0000 |      1.0000 |
 | "Ttrack.chisqprobSum"                           |      4607 |   1458.149 |    0.31651 |    0.29614 |  1.3406e-06 |     0.99984 |
 | "Ttrack.flipCharge"                             |      4607 |        678 |    0.14717 |    0.35427 |      0.0000 |      1.0000 |
 | "Ttrack.numOutliers"                            |      4607 |       1634 |    0.35468 |    0.57750 |      0.0000 |      2.0000 |
 | "Upstream.badChisq"                             |      1388 |        115 |   0.082853 |    0.27566 |      0.0000 |      1.0000 |
 | "Upstream.chisqprobSum"                         |      1388 |   582.9941 |    0.42002 |    0.33051 |  4.8585e-10 |     0.99997 |
 | "Upstream.flipCharge"                           |      1388 |         24 |   0.017291 |    0.13035 |      0.0000 |      1.0000 |
 | "Upstream.numOutliers"                          |      1388 |        784 |    0.56484 |    0.65812 |      0.0000 |      2.0000 |
 | "Velo.badChisq"                                 |      2029 |        361 |    0.17792 |    0.38245 |      0.0000 |      1.0000 |
 | "Velo.chisqprobSum"                             |      2029 |   581.3182 |    0.28650 |    0.29504 |      0.0000 |     0.99875 |
 | "Velo.flipCharge"                               |      2029 |          0 |     0.0000 |     0.0000 |      0.0000 |      0.0000 |
 | "Velo.numOutliers"                              |      2029 |       1015 |    0.50025 |    0.70247 |      0.0000 |      2.0000 |
 | "VeloBackward.badChisq"                         |      2606 |        195 |   0.074827 |    0.26311 |      0.0000 |      1.0000 |
 | "VeloBackward.chisqprobSum"                     |      2606 |   975.2326 |    0.37423 |    0.30485 |      0.0000 |     0.99922 |
 | "VeloBackward.flipCharge"                       |      2606 |          0 |     0.0000 |     0.0000 |      0.0000 |      0.0000 |
 | "VeloBackward.numOutliers"                      |      2606 |        790 |    0.30315 |    0.55838 |      0.0000 |      2.0000 |
TrackV0Finder     SUCCESS Number of counters : 1
 |    Counter                                      |     #     |    sum     | mean/eff^* | rms/err^*  |     min     |     max     |
 | "numselected"                                   |       100 |         91 |    0.91000 |     1.5754 |      0.0000 |      9.0000 |
VeloClusterMonitorSUCCESS Booked 15 Histogram(s) : 1D=12 2D=3
VeloClusterMonitorSUCCESS Number of counters : 2
 |    Counter                                      |     #     |    sum     | mean/eff^* | rms/err^*  |     min     |     max     |
 | "# VeloClusters"                                |       100 |     155271 |     1552.7 |     1038.1 |      19.000 |      5257.0 |
 | "# events"                                      |       100 |        100 |     1.0000 |     0.0000 |      1.0000 |      1.0000 |
VeloTrackMonitor  SUCCESS Booked 38 Histogram(s) : 1D=27 1DProf=11
VeloIPResolutio...SUCCESS Booked 21 Histogram(s) : 1D=21
VeloIPResolutio...SUCCESS Number of counters : 6
 |    Counter                                      |     #     |    sum     | mean/eff^* | rms/err^*  |     min     |     max     |
 | "Events Analysed"                               |       100 |        100 |     1.0000 |     0.0000 |      1.0000 |      1.0000 |
 | "Events Selected"                               |        23 |         23 |     1.0000 |     0.0000 |      1.0000 |      1.0000 |
 | "PVs Analysed"                                  |        23 |         23 |     1.0000 |     0.0000 |      1.0000 |      1.0000 |
 | "PVs Selected"                                  |         8 |          8 |     1.0000 |     0.0000 |      1.0000 |      1.0000 |
 | "Tracks Analysed"                               |       862 |        862 |     1.0000 |     0.0000 |      1.0000 |      1.0000 |
 | "Tracks selected"                               |       129 |        129 |     1.0000 |     0.0000 |      1.0000 |      1.0000 |
TrackMonitor      SUCCESS Booked 335 Histogram(s) : 1D=275 1DProf=60
TrackMonitor      SUCCESS Number of counters : 7
 |    Counter                                      |     #     |    sum     | mean/eff^* | rms/err^*  |     min     |     max     |
 | "#Downstream"                                   |       100 |       1860 |     18.600 |     19.006 |      0.0000 |      123.00 |
 | "#Long"                                         |       100 |       3924 |     39.240 |     38.567 |      0.0000 |      258.00 |
 | "#Tracks"                                       |       100 |      16313 |     163.13 |     131.66 |      0.0000 |      819.00 |
 | "#Ttrack"                                       |       100 |       4607 |     46.070 |     43.619 |      0.0000 |      258.00 |
 | "#Upstream"                                     |       100 |       1287 |     12.870 |     9.2517 |      0.0000 |      38.000 |
 | "#Velo"                                         |       100 |       2029 |     20.290 |     14.575 |      0.0000 |      72.000 |
 | "#VeloBackward"                                 |       100 |       2606 |     26.060 |     19.995 |      0.0000 |      88.000 |
TrackDiMuonMonitorSUCCESS Exceptions/Errors/Warnings/Infos Statistics : 0/0/1/0
TrackDiMuonMonitorSUCCESS  #WARNINGS   = 100      Message = 'No muon tracks at given location'
TrackVertexMonitorSUCCESS Booked 71 Histogram(s) : 1D=51 1DProf=20
AlignmentOnline...SUCCESS Booked 34 Histogram(s) : 1D=34
TrackV0Monitor    SUCCESS Booked 22 Histogram(s) : 1D=22
TrackFitMatchMo...SUCCESS Booked 73 Histogram(s) : 1D=29 1DProf=44
TrackAlignMonitor    INFO Number of elements in jacobian map: 1096
TrackAlignMonitor SUCCESS Booked 27 Histogram(s) : 1D=18 1DProf=9
TrackITOverlapM...SUCCESS Booked 398 Histogram(s) : 1D=266 2D=132
TrackVeloOverla...SUCCESS Booked 344 Histogram(s) : 1D=344
TTTrackMonitor    SUCCESS Booked 40 Histogram(s) : 1D=34 1DProf=6
ITTrackMonitor    SUCCESS Booked 252 Histogram(s) : 1D=244 2D=2 1DProf=6
TrackPV2HalfAli...SUCCESS Booked 16 Histogram(s) : 1D=14 1DProf=2
OTTimeMonitor     SUCCESS Booked 9 Histogram(s) : 1D=8 1DProf=1
OTTrackMonitor    SUCCESS Booked 67 Histogram(s) : 1D=47 2D=7 1DProf=13
OTHitEfficiency...SUCCESS Booked 101 Histogram(s) : 1D=9 2D=21 1DProf=47 2DProf=24
TTClusterMonitor  SUCCESS Booked 18 Histogram(s) : 1D=13 2D=4 1DProf=1
TTClusterMonitor  SUCCESS Number of counters : 1
 |    Counter                                      |     #     |    sum     | mean/eff^* | rms/err^*  |     min     |     max     |
 | "Number of events"                              |       100 |        100 |     1.0000 |     0.0000 |      1.0000 |      1.0000 |
ITClusterMonitor  SUCCESS Booked 14 Histogram(s) : 1D=9 2D=4 1DProf=1
ITClusterMonitor  SUCCESS Number of counters : 1
 |    Counter                                      |     #     |    sum     | mean/eff^* | rms/err^*  |     min     |     max     |
 | "Number of events"                              |       100 |        100 |     1.0000 |     0.0000 |      1.0000 |      1.0000 |
GoodLongTracksS...SUCCESS Number of counters : 2
 |    Counter                                      |     #     |    sum     | mean/eff^* | rms/err^*  |     min     |     max     |
 | "#passed"                                       |       100 |       1854 |     18.540 |     17.743 |      0.0000 |      124.00 |
 | "#seeds"                                        |       100 |      16313 |     163.13 |     131.66 |      0.0000 |      819.00 |
VeloOverlapTrac...SUCCESS Number of counters : 2
 |    Counter                                      |     #     |    sum     | mean/eff^* | rms/err^*  |     min     |     max     |
 |*"#passed"                                       |       100 |          2 |(  2.00000 +- 1.40000  )%|   -------   |   -------   |
 | "#seeds"                                        |       100 |      16313 |     163.13 |     131.66 |      0.0000 |      819.00 |
VeloBackwardTra...SUCCESS Number of counters : 2
 |    Counter                                      |     #     |    sum     | mean/eff^* | rms/err^*  |     min     |     max     |
 | "#passed"                                       |       100 |        343 |     3.4300 |     4.5172 |      0.0000 |      16.000 |
 | "#seeds"                                        |       100 |      16313 |     163.13 |     131.66 |      0.0000 |      819.00 |
ITBoxOverlapTra...SUCCESS Number of counters : 2
 |    Counter                                      |     #     |    sum     | mean/eff^* | rms/err^*  |     min     |     max     |
 | "#passed"                                       |       100 |        445 |     4.4500 |     4.3206 |      0.0000 |      23.000 |
 | "#seeds"                                        |       100 |      16313 |     163.13 |     131.66 |      0.0000 |      819.00 |
Alignment         SUCCESS Booked 1 Histogram(s) : 1D=1
GoodLongTracksT...SUCCESS Booked 68 Histogram(s) : 1D=55 1DProf=13
GoodLongTracksT...SUCCESS Number of counters : 2
 |    Counter                                      |     #     |    sum     | mean/eff^* | rms/err^*  |     min     |     max     |
 | "#Long"                                         |       100 |       1854 |     18.540 |     17.743 |      0.0000 |      124.00 |
 | "#Tracks"                                       |       100 |       1854 |     18.540 |     17.743 |      0.0000 |      124.00 |
GoodLongTracksV...SUCCESS Booked 232 Histogram(s) : 1D=232
GoodLongTracksI...SUCCESS Booked 398 Histogram(s) : 1D=266 2D=132
GoodLongTracksT...SUCCESS Booked 40 Histogram(s) : 1D=34 1DProf=6
GoodLongTracksO...SUCCESS Booked 67 Histogram(s) : 1D=47 2D=7 1DProf=13
GoodLongTracksF...SUCCESS Booked 73 Histogram(s) : 1D=29 1DProf=44
VeloOverlapTrac...SUCCESS Booked 56 Histogram(s) : 1D=47 1DProf=9
VeloOverlapTrac...SUCCESS Number of counters : 2
 |    Counter                                      |     #     |    sum     | mean/eff^* | rms/err^*  |     min     |     max     |
 | "#Tracks"                                       |       100 |          2 |   0.020000 |    0.14000 |      0.0000 |      1.0000 |
 | "#Velo"                                         |        69 |          2 |   0.028986 |    0.16777 |      0.0000 |      1.0000 |
VeloOverlapTrac...SUCCESS Booked 88 Histogram(s) : 1D=88
VeloOverlapTrac...SUCCESS Booked 2 Histogram(s) : 1D=2
VeloOverlapTrac...SUCCESS Booked 1 Histogram(s) : 1D=1
VeloOverlapTrac...SUCCESS Booked 67 Histogram(s) : 1D=47 2D=7 1DProf=13
VeloOverlapTrac...SUCCESS Booked 10 Histogram(s) : 1D=5 1DProf=5
VeloBackwardTra...SUCCESS Booked 56 Histogram(s) : 1D=47 1DProf=9
VeloBackwardTra...SUCCESS Number of counters : 2
 |    Counter                                      |     #     |    sum     | mean/eff^* | rms/err^*  |     min     |     max     |
 | "#Tracks"                                       |       100 |        343 |     3.4300 |     4.5172 |      0.0000 |      16.000 |
 | "#VeloBackward"                                 |       100 |        343 |     3.4300 |     4.5172 |      0.0000 |      16.000 |
VeloBackwardTra...SUCCESS Booked 48 Histogram(s) : 1D=48
VeloBackwardTra...SUCCESS Booked 2 Histogram(s) : 1D=2
VeloBackwardTra...SUCCESS Booked 1 Histogram(s) : 1D=1
VeloBackwardTra...SUCCESS Booked 67 Histogram(s) : 1D=47 2D=7 1DProf=13
VeloBackwardTra...SUCCESS Booked 10 Histogram(s) : 1D=5 1DProf=5
ITBoxOverlapTra...SUCCESS Booked 68 Histogram(s) : 1D=55 1DProf=13
ITBoxOverlapTra...SUCCESS Number of counters : 2
 |    Counter                                      |     #     |    sum     | mean/eff^* | rms/err^*  |     min     |     max     |
 | "#Long"                                         |       100 |        445 |     4.4500 |     4.3206 |      0.0000 |      23.000 |
 | "#Tracks"                                       |       100 |        445 |     4.4500 |     4.3206 |      0.0000 |      23.000 |
ITBoxOverlapTra...SUCCESS Booked 72 Histogram(s) : 1D=72
ITBoxOverlapTra...SUCCESS Booked 398 Histogram(s) : 1D=266 2D=132
ITBoxOverlapTra...SUCCESS Booked 40 Histogram(s) : 1D=34 1DProf=6
ITBoxOverlapTra...SUCCESS Booked 67 Histogram(s) : 1D=47 2D=7 1DProf=13
ITBoxOverlapTra...SUCCESS Booked 73 Histogram(s) : 1D=29 1DProf=44
AlignVertexMonitorSUCCESS Booked 71 Histogram(s) : 1D=51 1DProf=20
EventLoopMgr         INFO Histograms converted successfully according to request.
EventSelector       DEBUG finalize()
TransportSvc      SUCCESS  GEOMETRY ERRORS: 'Skip'     map has the size 0

TransportSvc      SUCCESS  GEOMETRY ERRORS: 'Recover'  map has the size 0

TransportSvc      SUCCESS  GEOMETRY ERRORS: 'Codes'    map has the size 0

TransportSvc         INFO Reset the static pointer to DetDesc::IGeometyrErrorSvc
ToolSvc              INFO Removing all tools created by ToolSvc
ToolSvc.Al::Ali...SUCCESS Booked 727 Histogram(s) : 1D=726 2D=1
ToolSvc.Al::Ver...SUCCESS Number of counters : 2
 |    Counter                                      |     #     |    sum     | mean/eff^* | rms/err^*  |     min     |     max     |
 | "vchi2"                                         |       244 |   1970.424 |     8.0755 |     5.6040 |  0.00082022 |      32.578 |
 | "vchi2orig"                                     |       244 |   1970.424 |     8.0755 |     5.6040 |  0.00082022 |      32.578 |
ToolSvc.Al::Tra...SUCCESS Number of counters : 1
 |    Counter                                      |     #     |    sum     | mean/eff^* | rms/err^*  |     min     |     max     |
 | "Fraction of failures"                          |      2293 |          0 |     0.0000 |     0.0000 |      0.0000 |      0.0000 |
ToolSvc.TrackSt...SUCCESS Number of counters : 2
 |    Counter                                      |     #     |    sum     | mean/eff^* | rms/err^*  |     min     |     max     |
 | "Number of states added"                        |        95 |       1860 |     19.579 |     19.002 |      0.0000 |      123.00 |
 | "Number of tracks seen"                         |       101 |       2949 |     29.198 |     33.277 |      0.0000 |      237.00 |
PatForward.PatF...SUCCESS Number of counters : 2
 |    Counter                                      |     #     |    sum     | mean/eff^* | rms/err^*  |     min     |     max     |
 | "#FinishedTracks"                               |      7362 |       4541 |    0.61682 |    0.60538 |      0.0000 |      4.0000 |
 | "#Seeds"                                        |      7362 |       7362 |     1.0000 |     0.0000 |      1.0000 |      1.0000 |
EscherInit.Brun...SUCCESS Booked 4 Histogram(s) : 1D=4
EscherInit.Brun...SUCCESS Number of counters : 2
 |    Counter                                      |     #     |    sum     | mean/eff^* | rms/err^*  |     min     |     max     |
 | "Delta Memory/MB"                               |        90 |    172.668 |     1.9185 |     10.286 |      0.0000 |      80.360 |
 | "Total Memory/MB"                               |       100 |   197072.2 |     1970.7 |     67.512 |      1762.3 |      2027.1 |
EscherInit.Brun...SUCCESS Exceptions/Errors/Warnings/Infos Statistics : 0/0/1/0
EscherInit.Brun...SUCCESS  #WARNINGS   = 2        Message = 'Delta Memory for the event exceeds 3*sigma'
AlignPVRefitter...SUCCESS Number of counters : 2
 |    Counter                                      |     #     |    sum     | mean/eff^* | rms/err^*  |     min     |     max     |
 | "Number of states added"                        |        91 |          0 |     0.0000 |     0.0000 |      0.0000 |      0.0000 |
 | "Number of tracks seen"                         |       101 |       6244 |     61.822 |     44.125 |      0.0000 |      207.00 |
ToolSvc.TrackVe...SUCCESS Number of counters : 2
 |    Counter                                      |     #     |    sum     | mean/eff^* | rms/err^*  |     min     |     max     |
 | "Number of states added"                        |        91 |          0 |     0.0000 |     0.0000 |      0.0000 |      0.0000 |
 | "Number of tracks seen"                         |       101 |       6445 |     63.812 |     46.086 |      0.0000 |      229.00 |
ToolSvc.PatSeedFitSUCCESS Exceptions/Errors/Warnings/Infos Statistics : 0/0/1/0
ToolSvc.PatSeedFitSUCCESS  #WARNINGS   = 146      Message = 'Stub fit failed, using best guess parameters [TrackBestTrackCreator]'
ToolSvc.PatAddT...SUCCESS Number of counters : 2
 |    Counter                                      |     #     |    sum     | mean/eff^* | rms/err^*  |     min     |     max     |
 | "#TT hits added"                                |      2642 |      10451 |     3.9557 |    0.59260 |      3.0000 |      7.0000 |
 | "#tracks with hits added"                       |      2642 |       2642 |     1.0000 |     0.0000 |      1.0000 |      1.0000 |
PatForward.PatF...SUCCESS Number of counters : 2
 |    Counter                                      |     #     |    sum     | mean/eff^* | rms/err^*  |     min     |     max     |
 | "#TT hits added"                                |      3395 |      13233 |     3.8978 |    0.61391 |      3.0000 |      7.0000 |
 | "#tracks with hits added"                       |      3395 |       3395 |     1.0000 |     0.0000 |      1.0000 |      1.0000 |
ToolSvc.FastVel...   INFO Maximum number of Velo hits 5108
ToolSvc.OTChann...SUCCESS Exceptions/Errors/Warnings/Infos Statistics : 0/0/1/0
ToolSvc.OTChann...SUCCESS  #WARNINGS   = 1        Message = 'Updating OT channel map for bank version 3 [PatForward]'
TimingAuditor.T...   INFO --------------------------------------------------------------------------------------------------
TimingAuditor.T...   INFO This machine has a speed about   2.44 times the speed of a 2.8 GHz Xeon.
TimingAuditor.T...   INFO Algorithm          (millisec) |    <user> |   <clock> |      min       max    sigma | entries | total (s) |
TimingAuditor.T...   INFO --------------------------------------------------------------------------------------------------
TimingAuditor.T...   INFO EVENT LOOP                    |   599.900 |   649.178 |    9.175    9547.9  1107.68 |     100 |    64.918 |
TimingAuditor.T...   INFO  EscherSequencer              |   526.300 |   546.286 |    8.717    4775.6   634.60 |     100 |    54.629 |
TimingAuditor.T...   INFO   Init                        |     0.800 |     0.518 |    0.249      12.5     1.21 |     100 |     0.052 |
TimingAuditor.T...   INFO    InitEscherSeq              |     0.800 |     0.508 |    0.243      12.5     1.21 |     100 |     0.051 |
TimingAuditor.T...   INFO     EscherInit                |     0.800 |     0.493 |    0.233      12.4     1.21 |     100 |     0.049 |
TimingAuditor.T...   INFO   HltFilterSeq                |     2.500 |     4.754 |    0.117     451.5    45.13 |     100 |     0.475 |
TimingAuditor.T...   INFO    Hlt1DecReportsDecoder      |     2.500 |     4.622 |    0.047     451.0    45.09 |     100 |     0.462 |
TimingAuditor.T...   INFO    Hlt2DecReportsDecoder      |     0.000 |     0.108 |    0.057       0.5     0.05 |     100 |     0.011 |
TimingAuditor.T...   INFO   Reco                        |   396.400 |   410.597 |    5.609    4006.8   532.20 |     100 |    41.060 |
TimingAuditor.T...   INFO    RecoDecodingSeq            |     4.700 |     5.167 |    0.538      14.8     3.01 |     100 |     0.517 |
TimingAuditor.T...   INFO     createBothVeloClusters    |     1.600 |     2.145 |    0.191       6.7     1.33 |     100 |     0.215 |
TimingAuditor.T...   INFO     createTTClusters          |     1.700 |     1.395 |    0.129       4.1     0.87 |     100 |     0.140 |
TimingAuditor.T...   INFO     createTTLiteClusters      |     0.200 |     0.249 |    0.060       0.7     0.11 |     100 |     0.025 |
TimingAuditor.T...   INFO     createITLiteClusters      |     0.100 |     0.232 |    0.049       1.9     0.19 |     100 |     0.023 |
TimingAuditor.T...   INFO     createITClusters          |     1.100 |     1.089 |    0.057       3.4     0.75 |     100 |     0.109 |
TimingAuditor.T...   INFO    RecoVELOSeq                |     3.900 |     3.798 |    0.127      27.3     3.75 |     100 |     0.380 |
TimingAuditor.T...   INFO     FastVeloTracking          |     3.900 |     3.767 |    0.113      27.2     3.74 |     100 |     0.377 |
TimingAuditor.T...   INFO    RecoTTSeq                  |     0.000 |     0.006 |    0.002       0.0     0.00 |     100 |     0.001 |
TimingAuditor.T...   INFO    RecoITSeq                  |     0.000 |     0.004 |    0.002       0.0     0.00 |     100 |     0.000 |
TimingAuditor.T...   INFO    RecoOTSeq                  |     0.000 |     0.004 |    0.002       0.0     0.00 |     100 |     0.000 |
TimingAuditor.T...   INFO    RecoTrSeq                  |   381.900 |   395.840 |    4.426    3898.8   520.58 |     100 |    39.584 |
TimingAuditor.T...   INFO     Track                     |   381.800 |   395.827 |    4.412    3898.8   520.58 |     100 |    39.583 |
TimingAuditor.T...   INFO      TrackForwardPatSeq       |    86.200 |    89.419 |    0.803     893.7   125.89 |     100 |     8.942 |
TimingAuditor.T...   INFO       PatForward              |    86.200 |    89.393 |    0.794     893.6   125.89 |     100 |     8.939 |
TimingAuditor.T...   INFO      TrackSeedPatSeq          |   107.200 |   110.775 |    0.528    1246.2   170.26 |     100 |    11.078 |
TimingAuditor.T...   INFO       PatSeeding              |   107.200 |   110.748 |    0.513    1246.2   170.26 |     100 |    11.075 |
TimingAuditor.T...   INFO      TrackMatchPatSeq         |     0.700 |     0.890 |    0.027       4.2     0.85 |     100 |     0.089 |
TimingAuditor.T...   INFO       PatMatch                |     0.500 |     0.873 |    0.019       4.2     0.85 |     100 |     0.087 |
TimingAuditor.T...   INFO      TrackDownstreamPatSeq    |    15.700 |    16.435 |    0.060     324.0    37.96 |     100 |     1.644 |
TimingAuditor.T...   INFO       PatDownstream           |    15.600 |    16.412 |    0.048     323.9    37.95 |     100 |     1.641 |
TimingAuditor.T...   INFO      TrackVeloTTPatSeq        |     6.400 |     6.866 |    0.021      69.9     8.28 |     100 |     0.687 |
TimingAuditor.T...   INFO       PatVeloTT               |     6.400 |     6.841 |    0.015      69.8     8.27 |     100 |     0.684 |
TimingAuditor.T...   INFO      TrackFitSeq              |   120.000 |   124.491 |    0.029    1055.8   147.72 |     100 |    12.449 |
TimingAuditor.T...   INFO       TrackBestTrackCreator   |   120.000 |   124.466 |    0.022    1055.8   147.72 |     100 |    12.447 |
TimingAuditor.T...   INFO      TrackAddExtraInfoSeq     |    45.400 |    46.810 |    0.118     350.9    47.53 |     100 |     4.681 |
TimingAuditor.T...   INFO       TrackClonesSeq          |     7.100 |     7.493 |    0.068     117.1    13.61 |     100 |     0.749 |
TimingAuditor.T...   INFO        FindTrackClones        |     7.100 |     7.373 |    0.048     116.8    13.58 |     100 |     0.737 |
TimingAuditor.T...   INFO        FlagTrackClones        |     0.000 |     0.089 |    0.011       0.4     0.07 |     100 |     0.009 |
TimingAuditor.T...   INFO       TrackAddLikelihood      |    37.700 |    38.378 |    0.009     229.5    34.28 |     100 |     3.838 |
TimingAuditor.T...   INFO       TrackAddNNGhostId       |     0.600 |     0.888 |    0.017       4.2     0.73 |     100 |     0.089 |
TimingAuditor.T...   INFO      TrackEraseExtraInformatio|     0.000 |     0.064 |    0.010       0.3     0.04 |     100 |     0.006 |
TimingAuditor.T...   INFO       TrackEraseExtraInfo     |     0.000 |     0.052 |    0.004       0.3     0.04 |     100 |     0.005 |
TimingAuditor.T...   INFO    RecoVertexSeq              |     5.700 |     5.730 |    0.050     176.2    18.72 |     100 |     0.573 |
TimingAuditor.T...   INFO     PatPVOffline              |     3.300 |     3.472 |    0.023     176.0    17.62 |     100 |     0.347 |
TimingAuditor.T...   INFO     TrackV0Finder             |     2.400 |     2.228 |    0.019      50.6     5.38 |     100 |     0.223 |
TimingAuditor.T...   INFO   Moni                        |    85.900 |    88.123 |    1.404     487.5    78.47 |     100 |     8.812 |
TimingAuditor.T...   INFO    MoniVELOSeq                |    19.500 |    20.322 |    0.132     394.2    39.76 |     100 |     2.032 |
TimingAuditor.T...   INFO     VeloClusterMonitor        |     2.900 |     3.023 |    0.075       8.9     1.80 |     100 |     0.302 |
TimingAuditor.T...   INFO     VeloTrackMonitor          |    13.200 |    13.113 |    0.010      74.1    10.99 |     100 |     1.311 |
TimingAuditor.T...   INFO     VeloIPResolutionMonitor   |     3.400 |     4.130 |    0.008     383.1    38.29 |     100 |     0.413 |
TimingAuditor.T...   INFO    MoniTrSeq                  |    49.900 |    50.912 |    0.196     307.5    45.31 |     100 |     5.091 |
TimingAuditor.T...   INFO     TrackMonitor              |    28.100 |    28.307 |    0.033     180.4    25.37 |     100 |     2.831 |
TimingAuditor.T...   INFO     TrackDiMuonMonitor        |     0.000 |     0.085 |    0.021       0.8     0.09 |     100 |     0.009 |
TimingAuditor.T...   INFO     TrackVertexMonitor        |     1.400 |     1.286 |    0.014      12.8     1.39 |     100 |     0.129 |
TimingAuditor.T...   INFO     AlignmentOnlineMonitor    |     0.600 |     1.097 |    0.007       5.9     0.95 |     100 |     0.110 |
TimingAuditor.T...   INFO     TrackV0Monitor            |     0.000 |     0.091 |    0.010       2.0     0.23 |     100 |     0.009 |
TimingAuditor.T...   INFO     TrackFitMatchMonitor      |     2.100 |     2.073 |    0.005      12.9     2.00 |     100 |     0.207 |
TimingAuditor.T...   INFO     TrackAlignMonitor         |     2.000 |     2.349 |    0.005      13.9     2.20 |     100 |     0.235 |
TimingAuditor.T...   INFO     TrackITOverlapMonitor     |     3.600 |     3.329 |    0.008      19.6     3.21 |     100 |     0.333 |
TimingAuditor.T...   INFO     TrackVeloOverlapMonitor   |     0.500 |     0.853 |    0.005       5.1     0.99 |     100 |     0.085 |
TimingAuditor.T...   INFO     TTTrackMonitor            |     2.900 |     3.051 |    0.013      19.4     2.83 |     100 |     0.305 |
TimingAuditor.T...   INFO     ITTrackMonitor            |     6.400 |     6.171 |    0.010      36.7     5.72 |     100 |     0.617 |
TimingAuditor.T...   INFO     TrackPV2HalfAlignMonitor  |     2.200 |     2.027 |    0.008      27.5     3.32 |     100 |     0.203 |
TimingAuditor.T...   INFO    MoniOTSeq                  |    13.400 |    14.413 |    0.664      91.2    12.90 |     100 |     1.441 |
TimingAuditor.T...   INFO     OTTimeMonitor             |     0.700 |     0.995 |    0.216       3.3     0.51 |     100 |     0.100 |
TimingAuditor.T...   INFO     OTTrackMonitor            |     9.900 |    10.471 |    0.197      75.5    10.53 |     100 |     1.047 |
TimingAuditor.T...   INFO     OTHitEfficiencyMonitor    |     2.800 |     2.894 |    0.082      13.3     2.18 |     100 |     0.289 |
TimingAuditor.T...   INFO    MoniSTSeq                  |     3.100 |     2.439 |    0.145       6.8     1.41 |     100 |     0.244 |
TimingAuditor.T...   INFO     TTClusterMonitor          |     1.600 |     1.460 |    0.083       4.3     0.87 |     100 |     0.146 |
TimingAuditor.T...   INFO     ITClusterMonitor          |     1.500 |     0.950 |    0.038       2.7     0.58 |     100 |     0.095 |
TimingAuditor.T...   INFO   AlignSequence               |    40.700 |    42.252 |    1.188     280.4    38.08 |     100 |     4.225 |
TimingAuditor.T...   INFO    AlignInputSeq              |     0.900 |     1.334 |    0.125       4.5     0.82 |     100 |     0.133 |
TimingAuditor.T...   INFO     AlignTrackSelSeq          |     0.400 |     0.579 |    0.086       1.8     0.32 |     100 |     0.058 |
TimingAuditor.T...   INFO      GoodLongTracksSelectorAlg|     0.200 |     0.293 |    0.019       1.1     0.20 |     100 |     0.029 |
TimingAuditor.T...   INFO      VeloOverlapTracksSelector|     0.000 |     0.069 |    0.013       0.4     0.05 |     100 |     0.007 |
TimingAuditor.T...   INFO      VeloBackwardTracksSelecto|     0.100 |     0.082 |    0.011       0.2     0.05 |     100 |     0.008 |
TimingAuditor.T...   INFO      ITBoxOverlapTracksSelecto|     0.100 |     0.065 |    0.011       0.2     0.03 |     100 |     0.007 |
TimingAuditor.T...   INFO      AlignTracks              |     0.000 |     0.029 |    0.011       0.1     0.01 |     100 |     0.003 |
TimingAuditor.T...   INFO     AlignPVSelSeq             |     0.500 |     0.730 |    0.027       3.5     0.56 |     100 |     0.073 |
TimingAuditor.T...   INFO      AlignPVRefitter          |     0.500 |     0.668 |    0.008       3.4     0.54 |     100 |     0.067 |
TimingAuditor.T...   INFO      AlignPVSelector          |     0.000 |     0.041 |    0.010       0.2     0.03 |     100 |     0.004 |
TimingAuditor.T...   INFO    AlignmentAlgSeq            |    22.200 |    23.977 |    0.029     169.4    23.17 |     100 |     2.398 |
TimingAuditor.T...   INFO     Alignment                 |    22.200 |    23.944 |    0.018     169.4    23.16 |     100 |     2.394 |
TimingAuditor.T...   INFO    AlignMonitorSeq            |    17.600 |    16.896 |    1.018     106.4    14.65 |     100 |     1.690 |
TimingAuditor.T...   INFO     GoodLongTracksTrackMonitor|     5.500 |     4.607 |    0.014      37.4     4.77 |     100 |     0.461 |
TimingAuditor.T...   INFO     GoodLongTracksVeloOverlapM|     0.300 |     0.365 |    0.005       5.8     0.76 |     100 |     0.037 |
TimingAuditor.T...   INFO     GoodLongTracksITOverlapMon|     1.500 |     1.203 |    0.005       8.1     1.41 |     100 |     0.120 |
TimingAuditor.T...   INFO     GoodLongTracksTTTrackMonit|     0.900 |     0.973 |    0.010       7.4     1.11 |     100 |     0.097 |
TimingAuditor.T...   INFO     GoodLongTracksOTTrackMonit|     2.100 |     2.631 |    0.173      20.7     2.54 |     100 |     0.263 |
TimingAuditor.T...   INFO     GoodLongTracksFitMatchMoni|     0.800 |     0.803 |    0.008       6.6     0.85 |     100 |     0.080 |
TimingAuditor.T...   INFO     VeloOverlapTracksTrackMoni|     0.100 |     0.068 |    0.009       3.4     0.34 |     100 |     0.007 |
TimingAuditor.T...   INFO     VeloOverlapTracksVeloOverl|     0.100 |     0.075 |    0.004       3.3     0.43 |     100 |     0.008 |
TimingAuditor.T...   INFO     VeloOverlapTracksITOverlap|     0.000 |     0.013 |    0.005       0.0     0.01 |     100 |     0.001 |
TimingAuditor.T...   INFO     VeloOverlapTracksTTTrackMo|     0.000 |     0.033 |    0.010       0.1     0.01 |     100 |     0.003 |
TimingAuditor.T...   INFO     VeloOverlapTracksOTTrackMo|     0.400 |     0.515 |    0.126       1.3     0.26 |     100 |     0.052 |
TimingAuditor.T...   INFO     VeloOverlapTracksFitMatchM|     0.000 |     0.017 |    0.008       0.0     0.01 |     100 |     0.002 |
TimingAuditor.T...   INFO     VeloBackwardTracksTrackMon|     0.800 |     0.594 |    0.012       3.0     0.72 |     100 |     0.059 |
TimingAuditor.T...   INFO     VeloBackwardTracksVeloOver|     0.100 |     0.061 |    0.005       2.5     0.25 |     100 |     0.006 |
TimingAuditor.T...   INFO     VeloBackwardTracksITOverla|     0.000 |     0.016 |    0.005       0.0     0.01 |     100 |     0.002 |
TimingAuditor.T...   INFO     VeloBackwardTracksTTTrackM|     0.000 |     0.025 |    0.009       0.1     0.01 |     100 |     0.003 |
TimingAuditor.T...   INFO     VeloBackwardTracksOTTrackM|     0.200 |     0.492 |    0.115       1.3     0.23 |     100 |     0.049 |
TimingAuditor.T...   INFO     VeloBackwardTracksFitMatch|     0.000 |     0.023 |    0.008       0.1     0.01 |     100 |     0.002 |
TimingAuditor.T...   INFO     ITBoxOverlapTracksTrackMon|     1.100 |     1.203 |    0.013       8.0     1.34 |     100 |     0.120 |
TimingAuditor.T...   INFO     ITBoxOverlapTracksVeloOver|     0.200 |     0.097 |    0.005       2.2     0.27 |     100 |     0.010 |
TimingAuditor.T...   INFO     ITBoxOverlapTracksITOverla|     1.200 |     0.631 |    0.004       5.7     0.92 |     100 |     0.063 |
TimingAuditor.T...   INFO     ITBoxOverlapTracksTTTrackM|     0.300 |     0.268 |    0.010       1.4     0.23 |     100 |     0.027 |
TimingAuditor.T...   INFO     ITBoxOverlapTracksOTTrackM|     0.800 |     0.995 |    0.112       4.1     0.69 |     100 |     0.100 |
TimingAuditor.T...   INFO     ITBoxOverlapTracksFitMatch|     0.200 |     0.246 |    0.007       1.8     0.26 |     100 |     0.025 |
TimingAuditor.T...   INFO     AlignVertexMonitor        |     0.700 |     0.732 |    0.012       2.6     0.48 |     100 |     0.073 |
TimingAuditor.T...   INFO --------------------------------------------------------------------------------------------------
DataOnDemandSvc      INFO Handled "DataFault" incidents: 0/0/1617(Alg/Node/Total).
*****Chrono*****     INFO ****************************************************************************************************
*****Chrono*****     INFO  The Final CPU consumption ( Chrono ) Table (ordered)
*****Chrono*****     INFO ****************************************************************************************************
DetailedMateria...   INFO Time User   : Tot= 0.57  [s] Ave/Min/Max=0.00126(+-0.0166)/    0/ 0.31  [s] #=452
ChronoStatSvc        INFO Time User   : Tot= 55.3  [s]                                             #=  1
*****Chrono*****     INFO ****************************************************************************************************
ChronoStatSvc.f...   INFO  Service finalized successfully
ApplicationMgr       INFO Application Manager Finalized successfully
ApplicationMgr       INFO Application Manager Terminated successfully
